{
	"publication": [
		{
			"title": "Strengthening Household Ability to Respond to Development Opportunities (SHOUHARDO) III Program of Care Bangladesh",
			"author": "",
			"abstract": "",
			"image": "https://rimes.int/sites/default/files/docs/SHOUHARDO_III_2021.png",
			"body": "Regional Integrated Multi-Hazard Early Warning System (RIMES) supports its member countries to develop their capabilities in generating forecast and risk informed early warning and tailor-made applications at different time scales (1-15 days, monthly, seasonal etc.). In Bangladesh RIMES provided technical support to the Flood Forecasting Warning Center (FFWC) of Bangladesh Water Development Board (BWDB) to develop and operationalize the 1-10 days probabilistic flood forecasting system. As part of RIMES commitment, the technical support to BWDB was continued beyond the project period to ensure that the system is operational during monsoon season. In addition to 10 days flood forecasting system, a Flash Flood Guidance System was also developed by RIMES for Sylhet and Cox’s Bazar region. Bangladesh Meteorological Department (BMD) also gets regular technical support from RIMES for enhancing their numerical weather prediction system, conducting user forums and agro-meteorological advisory services. Through different innovative decision support systems, community-oriented capacity building programs to transform and tailor the forecast products to more sector oriented actionable format; RIMES has been working relentlessly to connect the science, institutions and society to reach the last mile of the end-users.\n\nStrengthening Household Ability to Respond to Development Opportunities (SHOUHARDO) III program of CARE Bangladesh works with poor rural beneficiaries from 8 districts of the char and haor regions of Bangladesh. These beneficiaries are highly dependent on agriculture and livestock for their livelihood. By repeatedly being exposed to natural hazards, these communities do not have the capacity to buffer against the impacts of climate risk through their own assets which makes them the most vulnerable to disasters. The SHOUHARDO III sites and the nature of beneficiaries makes it an ideal program for piloting the application of weather and flood forecast information. To overcome the underlying risks of climate variability and furnish better agricultural/livestock production and disaster risk reduction, RIMES has implemented the project “Improved Weather and Flood Information System for Community Based Risk and Resource Management” under SHOUHARDO III program of CARE Bangladesh, supported by USAID and with complementary support from the Government of Bangladesh. Aiming towards the transition of ‘what the weather will be’ to ‘what the weather will do’; the project has made an effort to enable risk and resource management in poor and extreme poor communities by providing community focused and multi-sectoral action oriented forecast information that will enhance their resilience and eventually reduce livelihood risk. The project period was from July, 2019 to September, 2020.\n\nFor the past few decades, Bangladesh has shown significant progress in forecasting of flood, weather and other weather induced hazards. However, these forecasts rarely reach the at-risk communities with enough lead time to take any early action. Even if this information reaches the end-users, sometimes are difficult to interpret at the community level due to lack of capacity. So, it is crucial to improve lead time of the forecasts as well as interpret these forecasts into understandable and actionable advisories.",
			"link": "https://rimes.int/sites/default/files/docs/SHOUHARDO_III_2021_0.pdf"
		},
		{
			"title": "13th RIMES Council Meeting 2021",
			"author": "",
			"abstract": "",
			"image": "https://rimes.int/sites/default/files/docs/13thRIMESCouncilMeeting_2021.png",
			"body": "The 13th Meeting of the RIMES Council was held from 20-22 January 2021 virtually over Zoom due to the prolonged COVID-19 pandemic related travel restrictions. The meeting was presided by Dr. Ravichandran, Secretary, Ministry of Earth Sciences, Government of India, and RIMES Council Chair. The online event gathered around 100 participants from the 45 Member and collaborating countries and development partners of RIMES (refer to Annex 1 for the list of participants).\n\nThe 13th RIMES Council was designed around the five pillars of the information value chain, adopting a user-centered bottom-up approach. Seven sessions were conducted over two days to explore the various RIMES programs underway and updates by member countries on the innovative institutional mechanisms to seamlessly connect all the pillars. Engagement with key development partners on regional programmes, with the WMO in formulation of a Joint Strategy and Action Plan, and with the European Centre for Medium-Range Weather Forecasts (ECMWF) on data sharing was also presented.",
			"link": "https://rimes.int/sites/default/files/docs/13thRIMESCouncilMeeting_2021.pdf"
		}
	],
	"report": [
	],
	"article": [
		{
			"title": "Early Warning and Dissemination System” and Inauguration of Disaster Management Committee Database",
			"author": "",
			"abstract": "",
			"image": "https://rimes.int/sites/default/files/styles/page_banner/public/blogs/1.jpg",
			"body": "Every year, Bangladesh is ravaged by devastating floods that are becoming more frequent and severe due to climate change and multiple other factors. The floods cause immense harm to people’s lives, livelihoods, properties, and agricultural production. \n\n In this context, a workshop on the annual progress of the project titled ‘Development of Local Flood Early Warning and Dissemination System' was held in Dhaka, Bangladesh today. This component of the PROVATi project, financially supported by International Fund for Agricultural Development (IFAD) and technically supported by RIMES aims to reduce damages and casualties through improved flood early warning system. \n\n The workshop was presided over by State Minister of Disaster Management and Relief Ministry Dr. Md. Enamur Rahman MP (Chief Guest) and Director General Department of Disaster Management Md. Mijanur Rahman. Other eminent guests included Ministry of Disaster Management and Relief (MoDMR) Secretary Md. Kamrul Hasan NDC, Guest of Honor Additional Director General at Bangladesh Water Development Board (BWDB) Mr. Amirul Haq Bhuiyan and Local Government Engineering Department (LGED) Chief Engineer Sk. Md. Mohsin. Besides this, representatives of various national and international organizations including Directorate of Local Government Engineering, Directorate of Meteorology, Bangladesh Water Development Board (BWDB), development partner International Fund for Agricultural Development (IFAD) participated in the workshop.\n\n At the program, progress made through the project on local flood early warning and dissemination system was discussed. This included updates related to completion of the baseline survey, project activity progression and  inauguration of development of an online database portal of Disaster Management Committee for dissemination of vital early warning information in all districts, unions and wards of Bangladesh. \n\n Chief guest State Minister Dr. Md. Enamur Rahman, said that the program will play a crucial role in reducing the loss of lives and properties of the flood-vulnerable areas and contribute to capacity development of the local communities for enhanced disaster risk reduction. He thanked IFAD and development partners for providing assistance in this process and emphasized on integrated efforts to achieve the sustainable development goals together. \n\n Meanwhile, chairperson Md. Kamrul Hasan NDC, in his speech, emphasized on disseminating flood early warnings to the people in an easy-to-understand language. Similarly, Mr. Md. Mijanur Rahman, DG Department of Disaster Management (DDM) said that flood inundation maps of the vulnerable areas through drone survey will make flood forecasting more effective. Guest of Honor, BWDB Additional Director General, Mr. Amirul Haq Bhuiyan emphasized on integrated activities for the implementation of this project and assured cooperation from the FFWC-BWDB. Likewise, Mr. Netai Chandra Dey Sarker, Project Coordinator of PROVATi Project-DDM Component, delivered the welcome speech of the workshop and presented a short overview of the project's accomplishments. He also thanked all the participants for attending the workshop.\n\n The Promoting Resilience of Vulnerable Through Access to Infrastructure, Improved Skills and Information (PROVATi) project is being implemented with support from IFAD under the lead agency LGED. This component under the Department of Disaster Management (DDM) aims to reduce disaster risks and save lives and livelihoods in vulnerable areas from floods and natural disasters through dissemination of flood early warning to the root level users. The initiative, which covers 19 upazilas of Kurigram, Gaibandha and Jamalpur in the northern region of Bangladesh, is being implemented with technical support from RIMES. ",
			"link": ""
		},
		{
			"title": "Training on forecast interpretation and advisory generation for extension officials held in Bangladesh",
			"author": "",
			"abstract": "",
			"image": "https://rimes.int/sites/default/files/inline-images/IMG_20220829_140325920.jpeg",
			"body": "A two-day residential training program ‘Forecast Interpretation and Advisory Generation for Extension Officials’ was held earlier this week in Dhaka, Bangladesh. The training aimed at developing the capacities of the Department of Agricultural Extension (DAE) officials as well as orienting them on the agromet generation process at the local level using various forecast products.\n\n Extension officials from Rajshahi, Chapai Nawabganj, Satkhira and Barisal regions of Bangladesh took part in the training program. During the opening session, scientists from Bangladesh Rice Research Institute (BRRI), Meteorologists from Bangladesh Meteorological Department (BMD) and technical experts from RIMES held sessions on fundamentals of weather forecast, crop-weather relationship, influence of weather on pests and disease outbreaks, application of seasonal forecasts in strategic decision-making as well as accessing forecast products.\n\n On the following day, the participants were requested to prepare their respective local level agromet advisories based on the available forecast products which helped them to better understand the advisory generation process. At the session, the project director of Bangladesh Agrometeorological Information System Development Project (AMISDP) explained the mechanisms of the current agromet advisory system in Bangladesh.\n\n One of the training participants, Umme Salma, District Training Officer of Rajshahi said that this training program was a great initiative to explore the operational agromet services in Bangladesh. She is now confident about preparing more localized and customized agromet advisories rather than depending on previous district level advisories. She also hoped that similar capacity building programs are organized in future so that more extension officials will be able to interpret the forecast products and generate localized advisories.\n\n The training was organized as part of the Asia Regional Resilience to a Changing Climate (ARRCC) program implemented through support from the Foreign, Commonwealth & Development Office in collaboration with BMD and UK Met Office. The ARRCC program is being implemented in various countries of South Asia including Bangladesh with an aim to build climate and environmental resilience by improving the application and access to weather and climate services at the regional and national level. In addition, the program is supporting development of new technologies and innovative approaches to help vulnerable communities use weather warnings and forecasts to better prepare for climate-related shocks.",
			"link": ""
		},
		{
			"title": "NDRRMA-Nepal gives green signal to RIMES-proposed Implementation Plan for DSS Development",
			"author": "",
			"abstract": "",
			"image": "https://rimes.int/sites/default/files/inline-images/NDRRMA%20Nepal%20IP%20Approval%20%281%29.png",
			"body": "It is all systems go for the “Development of Nepal's National Disaster Risk Reduction and Management Authority (NDRRMA)'s Decision Support System (DSS) for lmpact-based Multi-Hazard Early Warning System”. The NDRRMA officially green-lighted it in a letter, issued on July 31, 2022, expressing confirmation of the implementation plan prepared by the Regional Integrated Multi-Hazard Early Warning System (RIMES).\n\n The plan outlines institutional gaps and the approach and methodology that will be adopted in DSS preparation, design, development, deployment, and sustainability efforts.\n\n The DSS for NDRRMA is an automated tool designed to facilitate climate-informed decision-making by generating guiding insights on climate-informed development and growth interventions based on analyses of past, present, and potential or future climate risks and opportunities in key socio-economic areas. For instance, using the system, a 10-day lead time for rainfall, maximum or minimum temperature, wind speed, and humidity, and analysis of risks associated with such forecasts, can be provided to relevant districts, allowing emergency responders to anticipate hazard or disaster scenarios, implement actions for reducing risks, and allocate resources for timely responses to emergency requirements, including rescue efforts if necessary.\n\n In a statement, NDRRMA Joint Secretary Rameshowr Marhatta noted how the proposed system is anticipated to help boost the agency’s work, particularly in hazard and disaster preparedness.\n\n The DSS tailored to the requirements of Nepal’s disaster risk reduction and management sector will be co-produced by RIMES and NDRRMA, along with other relevant sectoral bodies, as part of the World Bank-funded Climate Adaptation and Resilience for South Asia (CARE) Project.\n\n The CARE project aims to contribute to resilience-building in the region through enhanced access to regional data and knowledge; development of climate-smart guidelines, tools, and capacities; and promotion of climate-resilient decisions, policies, and investments across key public sectors in participating countries, namely Bangladesh, Nepal, and Pakistan.\n\n Visit www.careforsouthasia.info to learn more",
			"link": ""
		},
		{
			"title": "Training on Interpretation of Early Warning Information for Local Journalists held in Bogura, Bangladesh",
			"author": "",
			"abstract": "",
			"image": "https://rimes.int/sites/default/files/inline-images/IMG_20220823_144041.jpeg",
			"body": "19 journalists from local print and broadcast media, including community radio, participated in a training titled ‘Training on Interpretation of Early Warning Information for Local Journalists' in Bogura, Bangladesh on Tuesday.\n\n The training aimed to enhance the knowledge and capacities of the journalists and broadcasters on dissemination of weather information and flood early warning to the local communities. The training sessions covered various topics including interpretation of weather and flood forecasts, thunder-storm and lightning science, last–mile communication and consideration of weather anomalies among others. At the training, participants talked about the types of support they expect from the national meteorological and hydrological service providers (NMHSs) and discussed areas of possible collaboration with RIMES to strengthen last mile communication. The recommendations included development of effective Public Service Announcements (PSAs), IEC materials, awareness raising programs for students/youths and courtyard sessions with local communities among others.\n\n Md. Arifuzzaman Bhuyan, Executive Engineer, and Sarder Udoy Raihan, Sub Divisional Engineer from the Flood Forecasting and Warning Center (FFWC) attended the program as facilitators along with RIMES team members.\n\n The training is a part of a series of capacity building initiatives for media practitioners to help them interpret early warning information, build enduring relationships with NMHSs and create practical and actionable programming for the local communities. The initiatives are a part of the ‘Strengthening Last Mile Communications’ program, which is being implemented in four countries across the South Asia region including Bangladesh, Nepal, Pakistan and Sri Lanka. It aims to work on climate resilience through effective dissemination of timely early warning information among last-mile users for improved disaster preparedness and risk mitigation. The program is funded by the United States Agency for International Development (USAID) through the University Corporation for Atmospheric Research (UCAR) and is implemented by RIMES.",
			"link": ""
		}
	]
}